{
	"name": "Default bindings for Vive Pro Headset",
	"controller_type": "vive_pro",
	"last_edited_by": "UnrealEngine",
	"bindings":
	{
		"/actions/main":
		{
			"sources": []
		}
	},
	"description": "Chum Installation in Virtual Reality-11590370"
}